{
  "type": "json",
  "ddoc": "apps-index",
  "name": "categories",
  "index": {
    "partial_filter_selector": {
      "type": "steam.app.details",
      "data.categories": {
        "$type": "array"
      }
    },
    "fields": [
      "updatedAt"
    ]
  }
}
